{
    "Items": [{
        "headquarters": "60 Market Square, Belize City, Belize, Central America",
        "phone_number": "5012277082",
        "website": "http://www.belizebank.com",
        "Index": Decimal("1"),
        "name": "Belize Bank",
        "type": "Bank"
    }],
    "Count": 1,
    "ScannedCount": 6,
    "ResponseMetadata": {
        "RequestId": "NJFBMIECJENPF4G428GRJ89TUBVV4KQNSO5AEMVJF66Q9ASUAAJG",
        "HTTPStatusCode": 200,
        "HTTPHeaders": {
            "server": "Server",
            "date": "Wed, 11 Jul 2018 17:23:39 GMT",
            "content-type": "application/x-amz-json-1.0",
            "content-length": "261",
            "connection": "keep-alive",
            "x-amzn-requestid": "NJFBMIECJENPF4G428GRJ89TUBVV4KQNSO5AEMVJF66Q9ASUAAJG",
            "x-amz-crc32": "1996674860"
        },
        "RetryAttempts": 0
    }
}

response["Items"][0][""]
